{
  "name": "Awesome NextJs using Typescript apps",
  "description": "An awesome list of real-world open source app repositories - using NextJs with Typescript. No demos and xyz clones.",
  "repositories": [
    {
      "repo_url": "https://github.com/Linen-dev/linen.dev"
    },
    {
      "repo_url": "https://github.com/lensterxyz/lenster"
    },
    {
      "repo_url": "https://github.com/letterpad/letterpad"
    },
    {
      "repo_url": "https://github.com/weseek/growi"
    },
    {
      "repo_url": "https://github.com/metlo-labs/metlo"
    },
    {
      "repo_url": "https://github.com/planetscale/beam"
    }
  ]
}
